sim_questa/tb_top_comprehensive.vcd
$date
	Mon Mar 30 16:13:34 2026
$end
$version
	QuestaSim Version 2024.1
$end
$timescale
	1ps
$end

$scope module tb_top_comprehensive $end
$var reg 1 ! clk $end
$var reg 1 " rst $end
$var reg 8 # instr [7:0] $end
$var wire 1 $ cycle_count [255] $end
$var wire 1 % cycle_count [254] $end
$var wire 1 & cycle_count [253] $end
$var wire 1 ' cycle_count [252] $end
$var wire 1 ( cycle_count [251] $end
$var wire 1 ) cycle_count [250] $end
$var wire 1 * cycle_count [249] $end
$var wire 1 + cycle_count [248] $end
$var wire 1 , cycle_count [247] $end
$var wire 1 - cycle_count [246] $end
$var wire 1 . cycle_count [245] $end
$var wire 1 / cycle_count [244] $end
$var wire 1 0 cycle_count [243] $end
$var wire 1 1 cycle_count [242] $end
$var wire 1 2 cycle_count [241] $end
$var wire 1 3 cycle_count [240] $end
$var wire 1 4 cycle_count [239] $end
$var wire 1 5 cycle_count [238] $end
$var wire 1 6 cycle_count [237] $end
$var wire 1 7 cycle_count [236] $end
$var wire 1 8 cycle_count [235] $end
$var wire 1 9 cycle_count [234] $end
$var wire 1 : cycle_count [233] $end
$var wire 1 ; cycle_count [232] $end
$var wire 1 < cycle_count [231] $end
$var wire 1 = cycle_count [230] $end
$var wire 1 > cycle_count [229] $end
$var wire 1 ? cycle_count [228] $end
$var wire 1 @ cycle_count [227] $end
$var wire 1 A cycle_count [226] $end
$var wire 1 B cycle_count [225] $end
$var wire 1 C cycle_count [224] $end
$var wire 1 D cycle_count [223] $end
$var wire 1 E cycle_count [222] $end
$var wire 1 F cycle_count [221] $end
$var wire 1 G cycle_count [220] $end
$var wire 1 H cycle_count [219] $end
$var wire 1 I cycle_count [218] $end
$var wire 1 J cycle_count [217] $end
$var wire 1 K cycle_count [216] $end
$var wire 1 L cycle_count [215] $end
$var wire 1 M cycle_count [214] $end
$var wire 1 N cycle_count [213] $end
$var wire 1 O cycle_count [212] $end
$var wire 1 P cycle_count [211] $end
$var wire 1 Q cycle_count [210] $end
$var wire 1 R cycle_count [209] $end
$var wire 1 S cycle_count [208] $end
$var wire 1 T cycle_count [207] $end
$var wire 1 U cycle_count [206] $end
$var wire 1 V cycle_count [205] $end
$var wire 1 W cycle_count [204] $end
$var wire 1 X cycle_count [203] $end
$var wire 1 Y cycle_count [202] $end
$var wire 1 Z cycle_count [201] $end
$var wire 1 [ cycle_count [200] $end
$var wire 1 \ cycle_count [199] $end
$var wire 1 ] cycle_count [198] $end
$var wire 1 ^ cycle_count [197] $end
$var wire 1 _ cycle_count [196] $end
$var wire 1 ` cycle_count [195] $end
$var wire 1 a cycle_count [194] $end
$var wire 1 b cycle_count [193] $end
$var wire 1 c cycle_count [192] $end
$var wire 1 d cycle_count [191] $end
$var wire 1 e cycle_count [190] $end
$var wire 1 f cycle_count [189] $end
$var wire 1 g cycle_count [188] $end
$var wire 1 h cycle_count [187] $end
$var wire 1 i cycle_count [186] $end
$var wire 1 j cycle_count [185] $end
$var wire 1 k cycle_count [184] $end
$var wire 1 l cycle_count [183] $end
$var wire 1 m cycle_count [182] $end
$var wire 1 n cycle_count [181] $end
$var wire 1 o cycle_count [180] $end
$var wire 1 p cycle_count [179] $end
$var wire 1 q cycle_count [178] $end
$var wire 1 r cycle_count [177] $end
$var wire 1 s cycle_count [176] $end
$var wire 1 t cycle_count [175] $end
$var wire 1 u cycle_count [174] $end
$var wire 1 v cycle_count [173] $end
$var wire 1 w cycle_count [172] $end
$var wire 1 x cycle_count [171] $end
$var wire 1 y cycle_count [170] $end
$var wire 1 z cycle_count [169] $end
$var wire 1 { cycle_count [168] $end
$var wire 1 | cycle_count [167] $end
$var wire 1 } cycle_count [166] $end
$var wire 1 ~ cycle_count [165] $end
$var wire 1 !! cycle_count [164] $end
$var wire 1 "! cycle_count [163] $end
$var wire 1 #! cycle_count [162] $end
$var wire 1 $! cycle_count [161] $end
$var wire 1 %! cycle_count [160] $end
$var wire 1 &! cycle_count [159] $end
$var wire 1 '! cycle_count [158] $end
$var wire 1 (! cycle_count [157] $end
$var wire 1 )! cycle_count [156] $end
$var wire 1 *! cycle_count [155] $end
$var wire 1 +! cycle_count [154] $end
$var wire 1 ,! cycle_count [153] $end
$var wire 1 -! cycle_count [152] $end
$var wire 1 .! cycle_count [151] $end
$var wire 1 /! cycle_count [150] $end
$var wire 1 0! cycle_count [149] $end
$var wire 1 1! cycle_count [148] $end
$var wire 1 2! cycle_count [147] $end
$var wire 1 3! cycle_count [146] $end
$var wire 1 4! cycle_count [145] $end
$var wire 1 5! cycle_count [144] $end
$var wire 1 6! cycle_count [143] $end
$var wire 1 7! cycle_count [142] $end
$var wire 1 8! cycle_count [141] $end
$var wire 1 9! cycle_count [140] $end
$var wire 1 :! cycle_count [139] $end
$var wire 1 ;! cycle_count [138] $end
$var wire 1 <! cycle_count [137] $end
$var wire 1 =! cycle_count [136] $end
$var wire 1 >! cycle_count [135] $end
$var wire 1 ?! cycle_count [134] $end
$var wire 1 @! cycle_count [133] $end
$var wire 1 A! cycle_count [132] $end
$var wire 1 B! cycle_count [131] $end
$var wire 1 C! cycle_count [130] $end
$var wire 1 D! cycle_count [129] $end
$var wire 1 E! cycle_count [128] $end
$var wire 1 F! cycle_count [127] $end
$var wire 1 G! cycle_count [126] $end
$var wire 1 H! cycle_count [125] $end
$var wire 1 I! cycle_count [124] $end
$var wire 1 J! cycle_count [123] $end
$var wire 1 K! cycle_count [122] $end
$var wire 1 L! cycle_count [121] $end
$var wire 1 M! cycle_count [120] $end
$var wire 1 N! cycle_count [119] $end
$var wire 1 O! cycle_count [118] $end
$var wire 1 P! cycle_count [117] $end
$var wire 1 Q! cycle_count [116] $end
$var wire 1 R! cycle_count [115] $end
$var wire 1 S! cycle_count [114] $end
$var wire 1 T! cycle_count [113] $end
$var wire 1 U! cycle_count [112] $end
$var wire 1 V! cycle_count [111] $end
$var wire 1 W! cycle_count [110] $end
$var wire 1 X! cycle_count [109] $end
$var wire 1 Y! cycle_count [108] $end
$var wire 1 Z! cycle_count [107] $end
$var wire 1 [! cycle_count [106] $end
$var wire 1 \! cycle_count [105] $end
$var wire 1 ]! cycle_count [104] $end
$var wire 1 ^! cycle_count [103] $end
$var wire 1 _! cycle_count [102] $end
$var wire 1 `! cycle_count [101] $end
$var wire 1 a! cycle_count [100] $end
$var wire 1 b! cycle_count [99] $end
$var wire 1 c! cycle_count [98] $end
$var wire 1 d! cycle_count [97] $end
$var wire 1 e! cycle_count [96] $end
$var wire 1 f! cycle_count [95] $end
$var wire 1 g! cycle_count [94] $end
$var wire 1 h! cycle_count [93] $end
$var wire 1 i! cycle_count [92] $end
$var wire 1 j! cycle_count [91] $end
$var wire 1 k! cycle_count [90] $end
$var wire 1 l! cycle_count [89] $end
$var wire 1 m! cycle_count [88] $end
$var wire 1 n! cycle_count [87] $end
$var wire 1 o! cycle_count [86] $end
$var wire 1 p! cycle_count [85] $end
$var wire 1 q! cycle_count [84] $end
$var wire 1 r! cycle_count [83] $end
$var wire 1 s! cycle_count [82] $end
$var wire 1 t! cycle_count [81] $end
$var wire 1 u! cycle_count [80] $end
$var wire 1 v! cycle_count [79] $end
$var wire 1 w! cycle_count [78] $end
$var wire 1 x! cycle_count [77] $end
$var wire 1 y! cycle_count [76] $end
$var wire 1 z! cycle_count [75] $end
$var wire 1 {! cycle_count [74] $end
$var wire 1 |! cycle_count [73] $end
$var wire 1 }! cycle_count [72] $end
$var wire 1 ~! cycle_count [71] $end
$var wire 1 !" cycle_count [70] $end
$var wire 1 "" cycle_count [69] $end
$var wire 1 #" cycle_count [68] $end
$var wire 1 $" cycle_count [67] $end
$var wire 1 %" cycle_count [66] $end
$var wire 1 &" cycle_count [65] $end
$var wire 1 '" cycle_count [64] $end
$var wire 1 (" cycle_count [63] $end
$var wire 1 )" cycle_count [62] $end
$var wire 1 *" cycle_count [61] $end
$var wire 1 +" cycle_count [60] $end
$var wire 1 ," cycle_count [59] $end
$var wire 1 -" cycle_count [58] $end
$var wire 1 ." cycle_count [57] $end
$var wire 1 /" cycle_count [56] $end
$var wire 1 0" cycle_count [55] $end
$var wire 1 1" cycle_count [54] $end
$var wire 1 2" cycle_count [53] $end
$var wire 1 3" cycle_count [52] $end
$var wire 1 4" cycle_count [51] $end
$var wire 1 5" cycle_count [50] $end
$var wire 1 6" cycle_count [49] $end
$var wire 1 7" cycle_count [48] $end
$var wire 1 8" cycle_count [47] $end
$var wire 1 9" cycle_count [46] $end
$var wire 1 :" cycle_count [45] $end
$var wire 1 ;" cycle_count [44] $end
$var wire 1 <" cycle_count [43] $end
$var wire 1 =" cycle_count [42] $end
$var wire 1 >" cycle_count [41] $end
$var wire 1 ?" cycle_count [40] $end
$var wire 1 @" cycle_count [39] $end
$var wire 1 A" cycle_count [38] $end
$var wire 1 B" cycle_count [37] $end
$var wire 1 C" cycle_count [36] $end
$var wire 1 D" cycle_count [35] $end
$var wire 1 E" cycle_count [34] $end
$var wire 1 F" cycle_count [33] $end
$var wire 1 G" cycle_count [32] $end
$var wire 1 H" cycle_count [31] $end
$var wire 1 I" cycle_count [30] $end
$var wire 1 J" cycle_count [29] $end
$var wire 1 K" cycle_count [28] $end
$var wire 1 L" cycle_count [27] $end
$var wire 1 M" cycle_count [26] $end
$var wire 1 N" cycle_count [25] $end
$var wire 1 O" cycle_count [24] $end
$var wire 1 P" cycle_count [23] $end
$var wire 1 Q" cycle_count [22] $end
$var wire 1 R" cycle_count [21] $end
$var wire 1 S" cycle_count [20] $end
$var wire 1 T" cycle_count [19] $end
$var wire 1 U" cycle_count [18] $end
$var wire 1 V" cycle_count [17] $end
$var wire 1 W" cycle_count [16] $end
$var wire 1 X" cycle_count [15] $end
$var wire 1 Y" cycle_count [14] $end
$var wire 1 Z" cycle_count [13] $end
$var wire 1 [" cycle_count [12] $end
$var wire 1 \" cycle_count [11] $end
$var wire 1 ]" cycle_count [10] $end
$var wire 1 ^" cycle_count [9] $end
$var wire 1 _" cycle_count [8] $end
$var wire 1 `" cycle_count [7] $end
$var wire 1 a" cycle_count [6] $end
$var wire 1 b" cycle_count [5] $end
$var wire 1 c" cycle_count [4] $end
$var wire 1 d" cycle_count [3] $end
$var wire 1 e" cycle_count [2] $end
$var wire 1 f" cycle_count [1] $end
$var wire 1 g" cycle_count [0] $end
$var reg 8 h" pc [7:0] $end
$var integer 32 i" i $end
$var integer 32 j" j $end
$var integer 32 k" cycle $end
$var integer 32 l" test_num $end
$var integer 32 m" pass_count $end
$var integer 32 n" fail_count $end
$var reg 1 o" done $end
$var reg 1 p" halted $end
$var reg 1 q" ldi_pending $end
$var reg 1 r" test_passed $end

$scope task load_test_data $end
$var integer 32 s" test_case $end
$upscope $end

$scope task run_test $end
$var integer 32 t" test_case $end
$upscope $end

$scope task print_test_result $end
$var integer 32 u" test_case $end
$upscope $end

$scope module dut $end
$var wire 1 v" clk $end
$var wire 1 w" rst $end
$var wire 1 x" instr [7] $end
$var wire 1 y" instr [6] $end
$var wire 1 z" instr [5] $end
$var wire 1 {" instr [4] $end
$var wire 1 |" instr [3] $end
$var wire 1 }" instr [2] $end
$var wire 1 ~" instr [1] $end
$var wire 1 !# instr [0] $end
$var reg 256 "# cycle_count [255:0] $end
$var wire 1 ## opcode [3] $end
$var wire 1 $# opcode [2] $end
$var wire 1 %# opcode [1] $end
$var wire 1 &# opcode [0] $end
$var wire 1 '# rd [1] $end
$var wire 1 (# rd [0] $end
$var wire 1 )# rs1 [1] $end
$var wire 1 *# rs1 [0] $end
$var wire 1 +# rs2 [1] $end
$var wire 1 ,# rs2 [0] $end
$var wire 1 -# reg_wr_en $end
$var wire 1 .# ram_wr_en $end
$var wire 1 /# alu_en $end
$var wire 1 0# load_en $end
$var wire 1 1# store_en $end
$var wire 1 2# ldi_en $end
$var wire 1 3# loadhi_en $end
$var wire 1 4# loadyi_en $end
$var wire 1 5# storehi_en $end
$var wire 1 6# setlo_en $end
$var wire 1 7# msub_en $end
$var wire 1 8# inc_en $end
$var wire 1 9# clr_en $end
$var wire 1 :# dec_en $end
$var wire 1 ;# halt_en $end
$var wire 1 <# alu_op [3] $end
$var wire 1 =# alu_op [2] $end
$var wire 1 ># alu_op [1] $end
$var wire 1 ?# alu_op [0] $end
$var wire 1 @# rs1_data [7] $end
$var wire 1 A# rs1_data [6] $end
$var wire 1 B# rs1_data [5] $end
$var wire 1 C# rs1_data [4] $end
$var wire 1 D# rs1_data [3] $end
$var wire 1 E# rs1_data [2] $end
$var wire 1 F# rs1_data [1] $end
$var wire 1 G# rs1_data [0] $end
$var wire 1 H# rs2_data [7] $end
$var wire 1 I# rs2_data [6] $end
$var wire 1 J# rs2_data [5] $end
$var wire 1 K# rs2_data [4] $end
$var wire 1 L# rs2_data [3] $end
$var wire 1 M# rs2_data [2] $end
$var wire 1 N# rs2_data [1] $end
$var wire 1 O# rs2_data [0] $end
$var wire 1 P# r1_data [7] $end
$var wire 1 Q# r1_data [6] $end
$var wire 1 R# r1_data [5] $end
$var wire 1 S# r1_data [4] $end
$var wire 1 T# r1_data [3] $end
$var wire 1 U# r1_data [2] $end
$var wire 1 V# r1_data [1] $end
$var wire 1 W# r1_data [0] $end
$var reg 8 X# reg_wr_data [7:0] $end
$var reg 1 Y# reg_wr_en_actual $end
$var reg 2 Z# reg_wr_addr [1:0] $end
$var reg 1 [# reg_wr2_en $end
$var reg 2 \# reg_wr2_addr [1:0] $end
$var reg 8 ]# reg_wr2_data [7:0] $end
$var wire 1 ^# alu_result [7] $end
$var wire 1 _# alu_result [6] $end
$var wire 1 `# alu_result [5] $end
$var wire 1 a# alu_result [4] $end
$var wire 1 b# alu_result [3] $end
$var wire 1 c# alu_result [2] $end
$var wire 1 d# alu_result [1] $end
$var wire 1 e# alu_result [0] $end
$var wire 1 f# msub_result [7] $end
$var wire 1 g# msub_result [6] $end
$var wire 1 h# msub_result [5] $end
$var wire 1 i# msub_result [4] $end
$var wire 1 j# msub_result [3] $end
$var wire 1 k# msub_result [2] $end
$var wire 1 l# msub_result [1] $end
$var wire 1 m# msub_result [0] $end
$var wire 1 n# zero_flag $end
$var wire 1 o# ram_rd_data [7] $end
$var wire 1 p# ram_rd_data [6] $end
$var wire 1 q# ram_rd_data [5] $end
$var wire 1 r# ram_rd_data [4] $end
$var wire 1 s# ram_rd_data [3] $end
$var wire 1 t# ram_rd_data [2] $end
$var wire 1 u# ram_rd_data [1] $end
$var wire 1 v# ram_rd_data [0] $end
$var reg 8 w# ram_addr [7:0] $end
$var reg 1 x# load_pending $end
$var reg 2 y# load_rd [1:0] $end
$var reg 1 z# autoinc_pending $end
$var reg 2 {# autoinc_reg [1:0] $end
$var reg 1 |# ldi_pending $end
$var reg 2 }# ldi_rd [1:0] $end
$var reg 1 ~# halted $end
$var integer 32 !$ i $end
$var wire 1 "$ rs1_data_int [7] $end
$var wire 1 #$ rs1_data_int [6] $end
$var wire 1 $$ rs1_data_int [5] $end
$var wire 1 %$ rs1_data_int [4] $end
$var wire 1 &$ rs1_data_int [3] $end
$var wire 1 '$ rs1_data_int [2] $end
$var wire 1 ($ rs1_data_int [1] $end
$var wire 1 )$ rs1_data_int [0] $end
$var wire 1 *$ rs2_data_int [7] $end
$var wire 1 +$ rs2_data_int [6] $end
$var wire 1 ,$ rs2_data_int [5] $end
$var wire 1 -$ rs2_data_int [4] $end
$var wire 1 .$ rs2_data_int [3] $end
$var wire 1 /$ rs2_data_int [2] $end
$var wire 1 0$ rs2_data_int [1] $end
$var wire 1 1$ rs2_data_int [0] $end
$var wire 1 2$ any_load $end

$scope module u_decoder $end
$var parameter 4 3$ OP_NOP $end
$var parameter 4 4$ OP_ADD $end
$var parameter 4 5$ OP_SETLO $end
$var parameter 4 6$ OP_MSUB $end
$var parameter 4 7$ OP_DIV $end
$var parameter 4 8$ OP_LOAD $end
$var parameter 4 9$ OP_STORE $end
$var parameter 4 :$ OP_MOV $end
$var parameter 4 ;$ OP_LDI $end
$var parameter 4 <$ OP_LOADHI $end
$var parameter 4 =$ OP_LOADYI $end
$var parameter 4 >$ OP_STOREHI $end
$var parameter 4 ?$ OP_INC $end
$var parameter 4 @$ OP_CLR $end
$var parameter 4 A$ OP_DEC $end
$var parameter 4 B$ OP_HLT $end
$var parameter 4 C$ ALU_NOP $end
$var parameter 4 D$ ALU_ADD $end
$var parameter 4 E$ ALU_SUB $end
$var parameter 4 F$ ALU_MUL $end
$var parameter 4 G$ ALU_DIV $end
$var parameter 4 H$ ALU_PASS $end
$var wire 1 x" instr [7] $end
$var wire 1 y" instr [6] $end
$var wire 1 z" instr [5] $end
$var wire 1 {" instr [4] $end
$var wire 1 |" instr [3] $end
$var wire 1 }" instr [2] $end
$var wire 1 ~" instr [1] $end
$var wire 1 !# instr [0] $end
$var wire 1 ## opcode [3] $end
$var wire 1 $# opcode [2] $end
$var wire 1 %# opcode [1] $end
$var wire 1 &# opcode [0] $end
$var wire 1 '# rd [1] $end
$var wire 1 (# rd [0] $end
$var wire 1 )# rs1 [1] $end
$var wire 1 *# rs1 [0] $end
$var wire 1 +# rs2 [1] $end
$var wire 1 ,# rs2 [0] $end
$var reg 1 I$ reg_wr_en $end
$var reg 1 J$ ram_wr_en $end
$var reg 1 K$ alu_en $end
$var reg 1 L$ load_en $end
$var reg 1 M$ store_en $end
$var reg 1 N$ ldi_en $end
$var reg 1 O$ loadhi_en $end
$var reg 1 P$ loadyi_en $end
$var reg 1 Q$ storehi_en $end
$var reg 1 R$ setlo_en $end
$var reg 1 S$ msub_en $end
$var reg 1 T$ inc_en $end
$var reg 1 U$ clr_en $end
$var reg 1 V$ dec_en $end
$var reg 1 W$ halt_en $end
$var reg 4 X$ alu_op [3:0] $end
$upscope $end

$scope module u_alu $end
$var parameter 4 Y$ ALU_NOP $end
$var parameter 4 Z$ ALU_ADD $end
$var parameter 4 [$ ALU_SUB $end
$var parameter 4 \$ ALU_MUL $end
$var parameter 4 ]$ ALU_DIV $end
$var parameter 4 ^$ ALU_PASS $end
$var parameter 8 _$ SAT_MAX $end
$var parameter 8 `$ SAT_MIN $end
$var wire 1 <# alu_op [3] $end
$var wire 1 =# alu_op [2] $end
$var wire 1 ># alu_op [1] $end
$var wire 1 ?# alu_op [0] $end
$var wire 1 @# a [7] $end
$var wire 1 A# a [6] $end
$var wire 1 B# a [5] $end
$var wire 1 C# a [4] $end
$var wire 1 D# a [3] $end
$var wire 1 E# a [2] $end
$var wire 1 F# a [1] $end
$var wire 1 G# a [0] $end
$var wire 1 H# b [7] $end
$var wire 1 I# b [6] $end
$var wire 1 J# b [5] $end
$var wire 1 K# b [4] $end
$var wire 1 L# b [3] $end
$var wire 1 M# b [2] $end
$var wire 1 N# b [1] $end
$var wire 1 O# b [0] $end
$var wire 1 P# acc [7] $end
$var wire 1 Q# acc [6] $end
$var wire 1 R# acc [5] $end
$var wire 1 S# acc [4] $end
$var wire 1 T# acc [3] $end
$var wire 1 U# acc [2] $end
$var wire 1 V# acc [1] $end
$var wire 1 W# acc [0] $end
$var wire 1 @# rd_data [7] $end
$var wire 1 A# rd_data [6] $end
$var wire 1 B# rd_data [5] $end
$var wire 1 C# rd_data [4] $end
$var wire 1 D# rd_data [3] $end
$var wire 1 E# rd_data [2] $end
$var wire 1 F# rd_data [1] $end
$var wire 1 G# rd_data [0] $end
$var reg 8 a$ result [7:0] $end
$var reg 8 b$ msub_result [7:0] $end
$var wire 1 n# zero_flag $end
$var reg 16 c$ temp_result [15:0] $end
$var reg 16 d$ temp_msub [15:0] $end

$scope function saturate $end
$var reg 8 e$ saturate [7:0] $end
$var reg 16 f$ val [15:0] $end
$upscope $end
$upscope $end

$scope module u_ram $end
$var parameter 32 g$ DEPTH $end
$var parameter 32 h$ ADDR_WIDTH $end
$var wire 1 v" clk $end
$var wire 1 i$ wr_en $end
$var wire 1 j$ addr [7] $end
$var wire 1 k$ addr [6] $end
$var wire 1 l$ addr [5] $end
$var wire 1 m$ addr [4] $end
$var wire 1 n$ addr [3] $end
$var wire 1 o$ addr [2] $end
$var wire 1 p$ addr [1] $end
$var wire 1 q$ addr [0] $end
$var wire 1 @# wr_data [7] $end
$var wire 1 A# wr_data [6] $end
$var wire 1 B# wr_data [5] $end
$var wire 1 C# wr_data [4] $end
$var wire 1 D# wr_data [3] $end
$var wire 1 E# wr_data [2] $end
$var wire 1 F# wr_data [1] $end
$var wire 1 G# wr_data [0] $end
$var reg 8 r$ rd_data [7:0] $end
$var integer 32 s$ i $end
$upscope $end
$upscope $end
$upscope $end
$enddefinitions $end
#0
$dumpvars
0!
1"
b101100 #
b0 "#
b0 X#
1Y#
b11 Z#
0[#
b0 \#
b0 ]#
b0 w#
0x#
b0 y#
0z#
b0 {#
0|#
b0 }#
0~#
1I$
0J$
0K$
0L$
0M$
0N$
0O$
0P$
0Q$
1R$
0S$
0T$
0U$
0V$
0W$
b0 X$
b0 a$
b0 b$
b0 c$
b0 d$
b0 e$
b0 f$
bx r$
b0 h"
0o"
0p"
0q"
xr"
b0 3$
b1 4$
b10 5$
b11 6$
b100 7$
b101 8$
b110 9$
b111 :$
b1000 ;$
b1001 <$
b1010 =$
b1011 >$
b1100 ?$
b1101 @$
b1110 A$
b1111 B$
b0 C$
b1 D$
b10 E$
b11 F$
b100 G$
b1111 H$
b0 Y$
b1 Z$
b10 [$
b11 \$
b100 ]$
b1111 ^$
b1111111 _$
b10000000 `$
b1000000 g$
b1000 h$
b100 !$
b1000000 s$
b1000 i"
bx j"
bx k"
b1 l"
b0 m"
b0 n"
b1 s"
b1 t"
bx u"
0g"
0f"
0e"
0d"
0c"
0b"
0a"
0`"
0_"
0^"
0]"
0\"
0["
0Z"
0Y"
0X"
0W"
0V"
0U"
0T"
0S"
0R"
0Q"
0P"
0O"
0N"
0M"
0L"
0K"
0J"
0I"
0H"
0G"
0F"
0E"
0D"
0C"
0B"
0A"
0@"
0?"
0>"
0="
0<"
0;"
0:"
09"
08"
07"
06"
05"
04"
03"
02"
01"
00"
0/"
0."
0-"
0,"
0+"
0*"
0)"
0("
0'"
0&"
0%"
0$"
0#"
0""
0!"
0~!
0}!
0|!
0{!
0z!
0y!
0x!
0w!
0v!
0u!
0t!
0s!
0r!
0q!
0p!
0o!
0n!
0m!
0l!
0k!
0j!
0i!
0h!
0g!
0f!
0e!
0d!
0c!
0b!
0a!
0`!
0_!
0^!
0]!
0\!
0[!
0Z!
0Y!
0X!
0W!
0V!
0U!
0T!
0S!
0R!
0Q!
0P!
0O!
0N!
0M!
0L!
0K!
0J!
0I!
0H!
0G!
0F!
0E!
0D!
0C!
0B!
0A!
0@!
0?!
0>!
0=!
0<!
0;!
0:!
09!
08!
07!
06!
05!
04!
03!
02!
01!
00!
0/!
0.!
0-!
0,!
0+!
0*!
0)!
0(!
0'!
0&!
0%!
0$!
0#!
0"!
0!!
0~
0}
0|
0{
0z
0y
0x
0w
0v
0u
0t
0s
0r
0q
0p
0o
0n
0m
0l
0k
0j
0i
0h
0g
0f
0e
0d
0c
0b
0a
0`
0_
0^
0]
0\
0[
0Z
0Y
0X
0W
0V
0U
0T
0S
0R
0Q
0P
0O
0N
0M
0L
0K
0J
0I
0H
0G
0F
0E
0D
0C
0B
0A
0@
0?
0>
0=
0<
0;
0:
09
08
07
06
05
04
03
02
01
00
0/
0.
0-
0,
0+
0*
0)
0(
0'
0&
0%
0$
0&#
1%#
0$#
0##
1(#
1'#
1*#
1)#
0,#
0+#
1-#
0.#
0/#
00#
01#
02#
03#
04#
05#
16#
07#
08#
09#
0:#
0;#
0?#
0>#
0=#
0<#
0G#
0F#
0E#
0D#
0C#
0B#
0A#
0@#
0O#
0N#
0M#
0L#
0K#
0J#
0I#
0H#
0W#
0V#
0U#
0T#
0S#
0R#
0Q#
0P#
0e#
0d#
0c#
0b#
0a#
0`#
0_#
0^#
0m#
0l#
0k#
0j#
0i#
0h#
0g#
0f#
1n#
xv#
xu#
xt#
xs#
xr#
xq#
xp#
xo#
0)$
0($
0'$
0&$
0%$
0$$
0#$
0"$
01$
00$
0/$
0.$
0-$
0,$
0+$
0*$
02$
0!#
0~"
1}"
1|"
0{"
1z"
0y"
0x"
1w"
0v"
0q$
0p$
0o$
0n$
0m$
0l$
0k$
0j$
0i$
$end
#5000
1!
1v"
b0 !$
b1 !$
b10 !$
b11 !$
b100 !$
b10 r$
0v#
1u#
0t#
0s#
0r#
0q#
0p#
0o#
0Y#
1Y#
#10000
0!
0v"
#15000
1!
1v"
b0 !$
b1 !$
b10 !$
b11 !$
b100 !$
#20000
0!
0v"
#25000
1!
1v"
#30000
0!
0v"
#35000
1!
1v"
#40000
0!
0v"
#45000
1!
1v"
0"
b0 k"
0w"
#50000
0!
0v"
#55000
1!
1v"
b1 k"
b1 "#
b1 h"
1g"
b1010011 #
1!#
1~"
0}"
0|"
1{"
0z"
1y"
0*#
0)#
1&#
0%#
1$#
0(#
0'#
1,#
1+#
0I$
0R$
1I$
1L$
0Y#
b0 Z#
1Y#
b11 X#
10#
12$
06#
0Y#
b0 X#
#60000
0!
0v"
#65000
1!
1v"
b10 k"
b10 "#
1x#
b11 {#
b10 h"
0g"
1f"
b0 #
1Y#
b10 X#
0!#
0~"
0{"
0y"
0&#
0$#
0,#
0+#
0I$
0L$
0Y#
b0 X#
1Y#
b10 X#
0-#
00#
02$
#70000
0!
0v"
#75000
1!
1v"
b11 k"
b11 "#
0x#
b11 h"
1($
10$
1g"
1N#
1F#
b10 w#
b1111111111111100 d$
b1111111111111100 f$
b11111100 e$
b11111100 b$
b101100 #
0Y#
b0 X#
1p$
1}"
1|"
1z"
1k#
1j#
1i#
1h#
1g#
1f#
1*#
1)#
0($
0F#
1%#
1(#
1'#
1I$
1R$
b0 d$
b0 f$
b0 e$
b0 b$
b11 Z#
1-#
16#
0k#
0j#
0i#
0h#
0g#
0f#
1Y#
#80000
0!
0v"
#85000
1!
1v"
b100 k"
b100 "#
b0 r$
b100 h"
0g"
0f"
1e"
0u#
0Y#
1Y#
b10100111 #
1!#
1~"
0|"
1x"
0)#
1##
0'#
1,#
1+#
00$
0N#
b0 w#
0I$
0R$
1I$
1P$
0Y#
b1 Z#
1Y#
b11 X#
0p$
06#
14#
12$
b1000 w#
0Y#
b0 X#
1n$
#90000
0!
0v"
#95000
1!
1v"
b101 k"
b101 "#
1x#
b1 y#
b100 r$
b101 h"
1g"
1t#
b0 #
1Y#
b100 X#
0!#
0~"
0}"
0z"
0x"
0*#
1($
1F#
0%#
0##
0(#
0,#
0+#
10$
1N#
b1010 w#
0I$
0P$
b1111111111111100 d$
b1111111111111100 f$
b11111100 e$
b11111100 b$
0Y#
b0 Z#
b0 X#
1Y#
b1 Z#
b100 X#
1p$
0-#
04#
1k#
1j#
1i#
1h#
1g#
1f#
02$
0Y#
b0 Z#
b0 X#
1Y#
b1 Z#
b100 X#
b10 w#
0n$
#100000
0!
0v"
#105000
1!
1v"
b110 k"
b110 "#
b0 r$
0x#
b110 h"
0g"
1f"
0t#
1U#
b0 d$
b0 f$
b0 e$
b0 b$
b1000100 #
0Y#
b0 Z#
b0 X#
1}"
1y"
0k#
0j#
0i#
0h#
0g#
0f#
1*#
0($
1'$
0F#
1E#
1$#
1(#
1I$
1K$
b100 X$
b1111111111111100 d$
b1111111111111100 f$
b11111100 e$
b11111100 b$
b1 Z#
1-#
1/#
1k#
1j#
1i#
1h#
1g#
1f#
1=#
b10 a$
1Y#
0n#
1d#
0Y#
1Y#
b10 X#
#110000
0!
0v"
#115000
1!
1v"
b111 k"
b111 "#
b111 h"
1($
0'$
1g"
1F#
0E#
1V#
0U#
b0 a$
b1 a$
b1111111111111110 d$
b1111111111111110 f$
b11111110 e$
b11111110 b$
b101100 #
0Y#
b0 X#
1Y#
b10 X#
1|"
1z"
0y"
1l#
1e#
0d#
1)#
0($
0F#
1%#
0$#
1'#
0I$
0K$
b0 X$
1I$
1R$
b0 a$
b10 d$
b10 f$
b10 e$
b10 b$
0Y#
b11 Z#
b0 X#
1Y#
b1 X#
1n#
0/#
16#
0k#
0j#
0i#
0h#
0g#
0f#
0e#
0=#
0Y#
b0 X#
1Y#
#120000
0!
0v"
#125000
1!
1v"
b1000 k"
b1000 "#
b1000 h"
0g"
0f"
0e"
1d"
b10110111 #
1!#
1~"
0|"
1{"
1x"
0)#
1($
1F#
1&#
1##
0'#
1,#
1+#
00$
0N#
b0 w#
0I$
0R$
1J$
1Q$
0Y#
b1 Z#
1Y#
b11 X#
0p$
0-#
1.#
1i$
06#
15#
b10000 w#
0Y#
b0 X#
1[#
b11 \#
b1 ]#
1m$
#130000
0!
0v"
#135000
1!
1v"
b1001 k"
b1001 "#
b1001 h"
11$
1g"
1O#
b0 d$
b0 f$
b0 e$
b0 b$
b10001 w#
b10100111 #
0[#
b0 \#
b0 ]#
1[#
b11 \#
b10 ]#
1q$
0{"
0l#
0&#
0J$
0Q$
1I$
1P$
0[#
b0 \#
b0 ]#
1[#
b11 \#
b10 ]#
0.#
1-#
0i$
05#
14#
12$
b1001 w#
0[#
b0 \#
b0 ]#
1n$
0m$
#140000
0!
0v"
#145000
1!
1v"
b1010 k"
b1010 "#
1x#
b10 r$
b1010 h"
0g"
1f"
1u#
b101100 #
1Y#
b10 X#
0!#
0~"
1|"
0x"
1)#
1)$
0($
1G#
0F#
0##
1'#
0,#
0+#
01$
10$
0O#
1N#
b1010 w#
0I$
0P$
1I$
1R$
0Y#
b11 Z#
b0 X#
1Y#
b1 Z#
b10 X#
0q$
1p$
04#
16#
02$
0Y#
b11 Z#
b0 X#
1Y#
b1 Z#
b10 X#
1[#
b11 \#
b10 w#
0n$
#150000
0!
0v"
