sim_questa/tb_top.vcd
$date
	Mon Mar 30 15:42:52 2026
$end
$version
	QuestaSim Version 2024.1
$end
$timescale
	1ps
$end

$scope module tb_top $end
$var reg 1 ! clk $end
$var reg 1 " rst $end
$var reg 8 # instr [7:0] $end
$var wire 1 $ cycle_count [255] $end
$var wire 1 % cycle_count [254] $end
$var wire 1 & cycle_count [253] $end
$var wire 1 ' cycle_count [252] $end
$var wire 1 ( cycle_count [251] $end
$var wire 1 ) cycle_count [250] $end
$var wire 1 * cycle_count [249] $end
$var wire 1 + cycle_count [248] $end
$var wire 1 , cycle_count [247] $end
$var wire 1 - cycle_count [246] $end
$var wire 1 . cycle_count [245] $end
$var wire 1 / cycle_count [244] $end
$var wire 1 0 cycle_count [243] $end
$var wire 1 1 cycle_count [242] $end
$var wire 1 2 cycle_count [241] $end
$var wire 1 3 cycle_count [240] $end
$var wire 1 4 cycle_count [239] $end
$var wire 1 5 cycle_count [238] $end
$var wire 1 6 cycle_count [237] $end
$var wire 1 7 cycle_count [236] $end
$var wire 1 8 cycle_count [235] $end
$var wire 1 9 cycle_count [234] $end
$var wire 1 : cycle_count [233] $end
$var wire 1 ; cycle_count [232] $end
$var wire 1 < cycle_count [231] $end
$var wire 1 = cycle_count [230] $end
$var wire 1 > cycle_count [229] $end
$var wire 1 ? cycle_count [228] $end
$var wire 1 @ cycle_count [227] $end
$var wire 1 A cycle_count [226] $end
$var wire 1 B cycle_count [225] $end
$var wire 1 C cycle_count [224] $end
$var wire 1 D cycle_count [223] $end
$var wire 1 E cycle_count [222] $end
$var wire 1 F cycle_count [221] $end
$var wire 1 G cycle_count [220] $end
$var wire 1 H cycle_count [219] $end
$var wire 1 I cycle_count [218] $end
$var wire 1 J cycle_count [217] $end
$var wire 1 K cycle_count [216] $end
$var wire 1 L cycle_count [215] $end
$var wire 1 M cycle_count [214] $end
$var wire 1 N cycle_count [213] $end
$var wire 1 O cycle_count [212] $end
$var wire 1 P cycle_count [211] $end
$var wire 1 Q cycle_count [210] $end
$var wire 1 R cycle_count [209] $end
$var wire 1 S cycle_count [208] $end
$var wire 1 T cycle_count [207] $end
$var wire 1 U cycle_count [206] $end
$var wire 1 V cycle_count [205] $end
$var wire 1 W cycle_count [204] $end
$var wire 1 X cycle_count [203] $end
$var wire 1 Y cycle_count [202] $end
$var wire 1 Z cycle_count [201] $end
$var wire 1 [ cycle_count [200] $end
$var wire 1 \ cycle_count [199] $end
$var wire 1 ] cycle_count [198] $end
$var wire 1 ^ cycle_count [197] $end
$var wire 1 _ cycle_count [196] $end
$var wire 1 ` cycle_count [195] $end
$var wire 1 a cycle_count [194] $end
$var wire 1 b cycle_count [193] $end
$var wire 1 c cycle_count [192] $end
$var wire 1 d cycle_count [191] $end
$var wire 1 e cycle_count [190] $end
$var wire 1 f cycle_count [189] $end
$var wire 1 g cycle_count [188] $end
$var wire 1 h cycle_count [187] $end
$var wire 1 i cycle_count [186] $end
$var wire 1 j cycle_count [185] $end
$var wire 1 k cycle_count [184] $end
$var wire 1 l cycle_count [183] $end
$var wire 1 m cycle_count [182] $end
$var wire 1 n cycle_count [181] $end
$var wire 1 o cycle_count [180] $end
$var wire 1 p cycle_count [179] $end
$var wire 1 q cycle_count [178] $end
$var wire 1 r cycle_count [177] $end
$var wire 1 s cycle_count [176] $end
$var wire 1 t cycle_count [175] $end
$var wire 1 u cycle_count [174] $end
$var wire 1 v cycle_count [173] $end
$var wire 1 w cycle_count [172] $end
$var wire 1 x cycle_count [171] $end
$var wire 1 y cycle_count [170] $end
$var wire 1 z cycle_count [169] $end
$var wire 1 { cycle_count [168] $end
$var wire 1 | cycle_count [167] $end
$var wire 1 } cycle_count [166] $end
$var wire 1 ~ cycle_count [165] $end
$var wire 1 !! cycle_count [164] $end
$var wire 1 "! cycle_count [163] $end
$var wire 1 #! cycle_count [162] $end
$var wire 1 $! cycle_count [161] $end
$var wire 1 %! cycle_count [160] $end
$var wire 1 &! cycle_count [159] $end
$var wire 1 '! cycle_count [158] $end
$var wire 1 (! cycle_count [157] $end
$var wire 1 )! cycle_count [156] $end
$var wire 1 *! cycle_count [155] $end
$var wire 1 +! cycle_count [154] $end
$var wire 1 ,! cycle_count [153] $end
$var wire 1 -! cycle_count [152] $end
$var wire 1 .! cycle_count [151] $end
$var wire 1 /! cycle_count [150] $end
$var wire 1 0! cycle_count [149] $end
$var wire 1 1! cycle_count [148] $end
$var wire 1 2! cycle_count [147] $end
$var wire 1 3! cycle_count [146] $end
$var wire 1 4! cycle_count [145] $end
$var wire 1 5! cycle_count [144] $end
$var wire 1 6! cycle_count [143] $end
$var wire 1 7! cycle_count [142] $end
$var wire 1 8! cycle_count [141] $end
$var wire 1 9! cycle_count [140] $end
$var wire 1 :! cycle_count [139] $end
$var wire 1 ;! cycle_count [138] $end
$var wire 1 <! cycle_count [137] $end
$var wire 1 =! cycle_count [136] $end
$var wire 1 >! cycle_count [135] $end
$var wire 1 ?! cycle_count [134] $end
$var wire 1 @! cycle_count [133] $end
$var wire 1 A! cycle_count [132] $end
$var wire 1 B! cycle_count [131] $end
$var wire 1 C! cycle_count [130] $end
$var wire 1 D! cycle_count [129] $end
$var wire 1 E! cycle_count [128] $end
$var wire 1 F! cycle_count [127] $end
$var wire 1 G! cycle_count [126] $end
$var wire 1 H! cycle_count [125] $end
$var wire 1 I! cycle_count [124] $end
$var wire 1 J! cycle_count [123] $end
$var wire 1 K! cycle_count [122] $end
$var wire 1 L! cycle_count [121] $end
$var wire 1 M! cycle_count [120] $end
$var wire 1 N! cycle_count [119] $end
$var wire 1 O! cycle_count [118] $end
$var wire 1 P! cycle_count [117] $end
$var wire 1 Q! cycle_count [116] $end
$var wire 1 R! cycle_count [115] $end
$var wire 1 S! cycle_count [114] $end
$var wire 1 T! cycle_count [113] $end
$var wire 1 U! cycle_count [112] $end
$var wire 1 V! cycle_count [111] $end
$var wire 1 W! cycle_count [110] $end
$var wire 1 X! cycle_count [109] $end
$var wire 1 Y! cycle_count [108] $end
$var wire 1 Z! cycle_count [107] $end
$var wire 1 [! cycle_count [106] $end
$var wire 1 \! cycle_count [105] $end
$var wire 1 ]! cycle_count [104] $end
$var wire 1 ^! cycle_count [103] $end
$var wire 1 _! cycle_count [102] $end
$var wire 1 `! cycle_count [101] $end
$var wire 1 a! cycle_count [100] $end
$var wire 1 b! cycle_count [99] $end
$var wire 1 c! cycle_count [98] $end
$var wire 1 d! cycle_count [97] $end
$var wire 1 e! cycle_count [96] $end
$var wire 1 f! cycle_count [95] $end
$var wire 1 g! cycle_count [94] $end
$var wire 1 h! cycle_count [93] $end
$var wire 1 i! cycle_count [92] $end
$var wire 1 j! cycle_count [91] $end
$var wire 1 k! cycle_count [90] $end
$var wire 1 l! cycle_count [89] $end
$var wire 1 m! cycle_count [88] $end
$var wire 1 n! cycle_count [87] $end
$var wire 1 o! cycle_count [86] $end
$var wire 1 p! cycle_count [85] $end
$var wire 1 q! cycle_count [84] $end
$var wire 1 r! cycle_count [83] $end
$var wire 1 s! cycle_count [82] $end
$var wire 1 t! cycle_count [81] $end
$var wire 1 u! cycle_count [80] $end
$var wire 1 v! cycle_count [79] $end
$var wire 1 w! cycle_count [78] $end
$var wire 1 x! cycle_count [77] $end
$var wire 1 y! cycle_count [76] $end
$var wire 1 z! cycle_count [75] $end
$var wire 1 {! cycle_count [74] $end
$var wire 1 |! cycle_count [73] $end
$var wire 1 }! cycle_count [72] $end
$var wire 1 ~! cycle_count [71] $end
$var wire 1 !" cycle_count [70] $end
$var wire 1 "" cycle_count [69] $end
$var wire 1 #" cycle_count [68] $end
$var wire 1 $" cycle_count [67] $end
$var wire 1 %" cycle_count [66] $end
$var wire 1 &" cycle_count [65] $end
$var wire 1 '" cycle_count [64] $end
$var wire 1 (" cycle_count [63] $end
$var wire 1 )" cycle_count [62] $end
$var wire 1 *" cycle_count [61] $end
$var wire 1 +" cycle_count [60] $end
$var wire 1 ," cycle_count [59] $end
$var wire 1 -" cycle_count [58] $end
$var wire 1 ." cycle_count [57] $end
$var wire 1 /" cycle_count [56] $end
$var wire 1 0" cycle_count [55] $end
$var wire 1 1" cycle_count [54] $end
$var wire 1 2" cycle_count [53] $end
$var wire 1 3" cycle_count [52] $end
$var wire 1 4" cycle_count [51] $end
$var wire 1 5" cycle_count [50] $end
$var wire 1 6" cycle_count [49] $end
$var wire 1 7" cycle_count [48] $end
$var wire 1 8" cycle_count [47] $end
$var wire 1 9" cycle_count [46] $end
$var wire 1 :" cycle_count [45] $end
$var wire 1 ;" cycle_count [44] $end
$var wire 1 <" cycle_count [43] $end
$var wire 1 =" cycle_count [42] $end
$var wire 1 >" cycle_count [41] $end
$var wire 1 ?" cycle_count [40] $end
$var wire 1 @" cycle_count [39] $end
$var wire 1 A" cycle_count [38] $end
$var wire 1 B" cycle_count [37] $end
$var wire 1 C" cycle_count [36] $end
$var wire 1 D" cycle_count [35] $end
$var wire 1 E" cycle_count [34] $end
$var wire 1 F" cycle_count [33] $end
$var wire 1 G" cycle_count [32] $end
$var wire 1 H" cycle_count [31] $end
$var wire 1 I" cycle_count [30] $end
$var wire 1 J" cycle_count [29] $end
$var wire 1 K" cycle_count [28] $end
$var wire 1 L" cycle_count [27] $end
$var wire 1 M" cycle_count [26] $end
$var wire 1 N" cycle_count [25] $end
$var wire 1 O" cycle_count [24] $end
$var wire 1 P" cycle_count [23] $end
$var wire 1 Q" cycle_count [22] $end
$var wire 1 R" cycle_count [21] $end
$var wire 1 S" cycle_count [20] $end
$var wire 1 T" cycle_count [19] $end
$var wire 1 U" cycle_count [18] $end
$var wire 1 V" cycle_count [17] $end
$var wire 1 W" cycle_count [16] $end
$var wire 1 X" cycle_count [15] $end
$var wire 1 Y" cycle_count [14] $end
$var wire 1 Z" cycle_count [13] $end
$var wire 1 [" cycle_count [12] $end
$var wire 1 \" cycle_count [11] $end
$var wire 1 ]" cycle_count [10] $end
$var wire 1 ^" cycle_count [9] $end
$var wire 1 _" cycle_count [8] $end
$var wire 1 `" cycle_count [7] $end
$var wire 1 a" cycle_count [6] $end
$var wire 1 b" cycle_count [5] $end
$var wire 1 c" cycle_count [4] $end
$var wire 1 d" cycle_count [3] $end
$var wire 1 e" cycle_count [2] $end
$var wire 1 f" cycle_count [1] $end
$var wire 1 g" cycle_count [0] $end
$var reg 8 h" pc [7:0] $end
$var integer 32 i" i $end
$var integer 32 j" cycle $end
$var reg 1 k" done $end
$var reg 1 l" halted $end
$var reg 1 m" ldi_pending $end

$scope module dut $end
$var wire 1 n" clk $end
$var wire 1 o" rst $end
$var wire 1 p" instr [7] $end
$var wire 1 q" instr [6] $end
$var wire 1 r" instr [5] $end
$var wire 1 s" instr [4] $end
$var wire 1 t" instr [3] $end
$var wire 1 u" instr [2] $end
$var wire 1 v" instr [1] $end
$var wire 1 w" instr [0] $end
$var reg 256 x" cycle_count [255:0] $end
$var wire 1 y" opcode [3] $end
$var wire 1 z" opcode [2] $end
$var wire 1 {" opcode [1] $end
$var wire 1 |" opcode [0] $end
$var wire 1 }" rd [1] $end
$var wire 1 ~" rd [0] $end
$var wire 1 !# rs1 [1] $end
$var wire 1 "# rs1 [0] $end
$var wire 1 ## rs2 [1] $end
$var wire 1 $# rs2 [0] $end
$var wire 1 %# reg_wr_en $end
$var wire 1 &# ram_wr_en $end
$var wire 1 '# alu_en $end
$var wire 1 (# load_en $end
$var wire 1 )# store_en $end
$var wire 1 *# ldi_en $end
$var wire 1 +# loadhi_en $end
$var wire 1 ,# loadyi_en $end
$var wire 1 -# storehi_en $end
$var wire 1 .# setlo_en $end
$var wire 1 /# msub_en $end
$var wire 1 0# inc_en $end
$var wire 1 1# clr_en $end
$var wire 1 2# dec_en $end
$var wire 1 3# halt_en $end
$var wire 1 4# alu_op [3] $end
$var wire 1 5# alu_op [2] $end
$var wire 1 6# alu_op [1] $end
$var wire 1 7# alu_op [0] $end
$var wire 1 8# rs1_data [7] $end
$var wire 1 9# rs1_data [6] $end
$var wire 1 :# rs1_data [5] $end
$var wire 1 ;# rs1_data [4] $end
$var wire 1 <# rs1_data [3] $end
$var wire 1 =# rs1_data [2] $end
$var wire 1 ># rs1_data [1] $end
$var wire 1 ?# rs1_data [0] $end
$var wire 1 @# rs2_data [7] $end
$var wire 1 A# rs2_data [6] $end
$var wire 1 B# rs2_data [5] $end
$var wire 1 C# rs2_data [4] $end
$var wire 1 D# rs2_data [3] $end
$var wire 1 E# rs2_data [2] $end
$var wire 1 F# rs2_data [1] $end
$var wire 1 G# rs2_data [0] $end
$var wire 1 H# r1_data [7] $end
$var wire 1 I# r1_data [6] $end
$var wire 1 J# r1_data [5] $end
$var wire 1 K# r1_data [4] $end
$var wire 1 L# r1_data [3] $end
$var wire 1 M# r1_data [2] $end
$var wire 1 N# r1_data [1] $end
$var wire 1 O# r1_data [0] $end
$var reg 8 P# reg_wr_data [7:0] $end
$var reg 1 Q# reg_wr_en_actual $end
$var reg 2 R# reg_wr_addr [1:0] $end
$var reg 1 S# reg_wr2_en $end
$var reg 2 T# reg_wr2_addr [1:0] $end
$var reg 8 U# reg_wr2_data [7:0] $end
$var wire 1 V# alu_result [7] $end
$var wire 1 W# alu_result [6] $end
$var wire 1 X# alu_result [5] $end
$var wire 1 Y# alu_result [4] $end
$var wire 1 Z# alu_result [3] $end
$var wire 1 [# alu_result [2] $end
$var wire 1 \# alu_result [1] $end
$var wire 1 ]# alu_result [0] $end
$var wire 1 ^# msub_result [7] $end
$var wire 1 _# msub_result [6] $end
$var wire 1 `# msub_result [5] $end
$var wire 1 a# msub_result [4] $end
$var wire 1 b# msub_result [3] $end
$var wire 1 c# msub_result [2] $end
$var wire 1 d# msub_result [1] $end
$var wire 1 e# msub_result [0] $end
$var wire 1 f# zero_flag $end
$var wire 1 g# ram_rd_data [7] $end
$var wire 1 h# ram_rd_data [6] $end
$var wire 1 i# ram_rd_data [5] $end
$var wire 1 j# ram_rd_data [4] $end
$var wire 1 k# ram_rd_data [3] $end
$var wire 1 l# ram_rd_data [2] $end
$var wire 1 m# ram_rd_data [1] $end
$var wire 1 n# ram_rd_data [0] $end
$var reg 8 o# ram_addr [7:0] $end
$var reg 1 p# load_pending $end
$var reg 2 q# load_rd [1:0] $end
$var reg 1 r# autoinc_pending $end
$var reg 2 s# autoinc_reg [1:0] $end
$var reg 1 t# ldi_pending $end
$var reg 2 u# ldi_rd [1:0] $end
$var reg 1 v# halted $end
$var integer 32 w# i $end
$var wire 1 x# rs1_data_int [7] $end
$var wire 1 y# rs1_data_int [6] $end
$var wire 1 z# rs1_data_int [5] $end
$var wire 1 {# rs1_data_int [4] $end
$var wire 1 |# rs1_data_int [3] $end
$var wire 1 }# rs1_data_int [2] $end
$var wire 1 ~# rs1_data_int [1] $end
$var wire 1 !$ rs1_data_int [0] $end
$var wire 1 "$ rs2_data_int [7] $end
$var wire 1 #$ rs2_data_int [6] $end
$var wire 1 $$ rs2_data_int [5] $end
$var wire 1 %$ rs2_data_int [4] $end
$var wire 1 &$ rs2_data_int [3] $end
$var wire 1 '$ rs2_data_int [2] $end
$var wire 1 ($ rs2_data_int [1] $end
$var wire 1 )$ rs2_data_int [0] $end
$var wire 1 *$ any_load $end

$scope module u_decoder $end
$var parameter 4 +$ OP_NOP $end
$var parameter 4 ,$ OP_ADD $end
$var parameter 4 -$ OP_SETLO $end
$var parameter 4 .$ OP_MSUB $end
$var parameter 4 /$ OP_DIV $end
$var parameter 4 0$ OP_LOAD $end
$var parameter 4 1$ OP_STORE $end
$var parameter 4 2$ OP_MOV $end
$var parameter 4 3$ OP_LDI $end
$var parameter 4 4$ OP_LOADHI $end
$var parameter 4 5$ OP_LOADYI $end
$var parameter 4 6$ OP_STOREHI $end
$var parameter 4 7$ OP_INC $end
$var parameter 4 8$ OP_CLR $end
$var parameter 4 9$ OP_DEC $end
$var parameter 4 :$ OP_HLT $end
$var parameter 4 ;$ ALU_NOP $end
$var parameter 4 <$ ALU_ADD $end
$var parameter 4 =$ ALU_SUB $end
$var parameter 4 >$ ALU_MUL $end
$var parameter 4 ?$ ALU_DIV $end
$var parameter 4 @$ ALU_PASS $end
$var wire 1 p" instr [7] $end
$var wire 1 q" instr [6] $end
$var wire 1 r" instr [5] $end
$var wire 1 s" instr [4] $end
$var wire 1 t" instr [3] $end
$var wire 1 u" instr [2] $end
$var wire 1 v" instr [1] $end
$var wire 1 w" instr [0] $end
$var wire 1 y" opcode [3] $end
$var wire 1 z" opcode [2] $end
$var wire 1 {" opcode [1] $end
$var wire 1 |" opcode [0] $end
$var wire 1 }" rd [1] $end
$var wire 1 ~" rd [0] $end
$var wire 1 !# rs1 [1] $end
$var wire 1 "# rs1 [0] $end
$var wire 1 ## rs2 [1] $end
$var wire 1 $# rs2 [0] $end
$var reg 1 A$ reg_wr_en $end
$var reg 1 B$ ram_wr_en $end
$var reg 1 C$ alu_en $end
$var reg 1 D$ load_en $end
$var reg 1 E$ store_en $end
$var reg 1 F$ ldi_en $end
$var reg 1 G$ loadhi_en $end
$var reg 1 H$ loadyi_en $end
$var reg 1 I$ storehi_en $end
$var reg 1 J$ setlo_en $end
$var reg 1 K$ msub_en $end
$var reg 1 L$ inc_en $end
$var reg 1 M$ clr_en $end
$var reg 1 N$ dec_en $end
$var reg 1 O$ halt_en $end
$var reg 4 P$ alu_op [3:0] $end
$upscope $end

$scope module u_alu $end
$var parameter 4 Q$ ALU_NOP $end
$var parameter 4 R$ ALU_ADD $end
$var parameter 4 S$ ALU_SUB $end
$var parameter 4 T$ ALU_MUL $end
$var parameter 4 U$ ALU_DIV $end
$var parameter 4 V$ ALU_PASS $end
$var parameter 8 W$ SAT_MAX $end
$var parameter 8 X$ SAT_MIN $end
$var wire 1 4# alu_op [3] $end
$var wire 1 5# alu_op [2] $end
$var wire 1 6# alu_op [1] $end
$var wire 1 7# alu_op [0] $end
$var wire 1 8# a [7] $end
$var wire 1 9# a [6] $end
$var wire 1 :# a [5] $end
$var wire 1 ;# a [4] $end
$var wire 1 <# a [3] $end
$var wire 1 =# a [2] $end
$var wire 1 ># a [1] $end
$var wire 1 ?# a [0] $end
$var wire 1 @# b [7] $end
$var wire 1 A# b [6] $end
$var wire 1 B# b [5] $end
$var wire 1 C# b [4] $end
$var wire 1 D# b [3] $end
$var wire 1 E# b [2] $end
$var wire 1 F# b [1] $end
$var wire 1 G# b [0] $end
$var wire 1 H# acc [7] $end
$var wire 1 I# acc [6] $end
$var wire 1 J# acc [5] $end
$var wire 1 K# acc [4] $end
$var wire 1 L# acc [3] $end
$var wire 1 M# acc [2] $end
$var wire 1 N# acc [1] $end
$var wire 1 O# acc [0] $end
$var wire 1 8# rd_data [7] $end
$var wire 1 9# rd_data [6] $end
$var wire 1 :# rd_data [5] $end
$var wire 1 ;# rd_data [4] $end
$var wire 1 <# rd_data [3] $end
$var wire 1 =# rd_data [2] $end
$var wire 1 ># rd_data [1] $end
$var wire 1 ?# rd_data [0] $end
$var reg 8 Y$ result [7:0] $end
$var reg 8 Z$ msub_result [7:0] $end
$var wire 1 f# zero_flag $end
$var reg 16 [$ temp_result [15:0] $end
$var reg 16 \$ temp_msub [15:0] $end

$scope function saturate $end
$var reg 8 ]$ saturate [7:0] $end
$var reg 16 ^$ val [15:0] $end
$upscope $end
$upscope $end

$scope module u_ram $end
$var parameter 32 _$ DEPTH $end
$var parameter 32 `$ ADDR_WIDTH $end
$var wire 1 n" clk $end
$var wire 1 a$ wr_en $end
$var wire 1 b$ addr [7] $end
$var wire 1 c$ addr [6] $end
$var wire 1 d$ addr [5] $end
$var wire 1 e$ addr [4] $end
$var wire 1 f$ addr [3] $end
$var wire 1 g$ addr [2] $end
$var wire 1 h$ addr [1] $end
$var wire 1 i$ addr [0] $end
$var wire 1 8# wr_data [7] $end
$var wire 1 9# wr_data [6] $end
$var wire 1 :# wr_data [5] $end
$var wire 1 ;# wr_data [4] $end
$var wire 1 <# wr_data [3] $end
$var wire 1 =# wr_data [2] $end
$var wire 1 ># wr_data [1] $end
$var wire 1 ?# wr_data [0] $end
$var reg 8 j$ rd_data [7:0] $end
$var integer 32 k$ i $end
$upscope $end
$upscope $end
$upscope $end
$enddefinitions $end
#0
$dumpvars
0!
1"
b101100 #
b0 x"
b0 P#
1Q#
b11 R#
0S#
b0 T#
b0 U#
b0 o#
0p#
b0 q#
0r#
b0 s#
0t#
b0 u#
0v#
1A$
0B$
0C$
0D$
0E$
0F$
0G$
0H$
0I$
1J$
0K$
0L$
0M$
0N$
0O$
b0 P$
b0 Y$
b0 Z$
b0 [$
b0 \$
b0 ]$
b0 ^$
bx j$
b0 h"
0k"
0l"
0m"
b0 +$
b1 ,$
b10 -$
b11 .$
b100 /$
b101 0$
b110 1$
b111 2$
b1000 3$
b1001 4$
b1010 5$
b1011 6$
b1100 7$
b1101 8$
b1110 9$
b1111 :$
b0 ;$
b1 <$
b10 =$
b11 >$
b100 ?$
b1111 @$
b0 Q$
b1 R$
b10 S$
b11 T$
b100 U$
b1111 V$
b1111111 W$
b10000000 X$
b1000000 _$
b1000 `$
b100 w#
b1000000 k$
b11000 i"
bx j"
0g"
0f"
0e"
0d"
0c"
0b"
0a"
0`"
0_"
0^"
0]"
0\"
0["
0Z"
0Y"
0X"
0W"
0V"
0U"
0T"
0S"
0R"
0Q"
0P"
0O"
0N"
0M"
0L"
0K"
0J"
0I"
0H"
0G"
0F"
0E"
0D"
0C"
0B"
0A"
0@"
0?"
0>"
0="
0<"
0;"
0:"
09"
08"
07"
06"
05"
04"
03"
02"
01"
00"
0/"
0."
0-"
0,"
0+"
0*"
0)"
0("
0'"
0&"
0%"
0$"
0#"
0""
0!"
0~!
0}!
0|!
0{!
0z!
0y!
0x!
0w!
0v!
0u!
0t!
0s!
0r!
0q!
0p!
0o!
0n!
0m!
0l!
0k!
0j!
0i!
0h!
0g!
0f!
0e!
0d!
0c!
0b!
0a!
0`!
0_!
0^!
0]!
0\!
0[!
0Z!
0Y!
0X!
0W!
0V!
0U!
0T!
0S!
0R!
0Q!
0P!
0O!
0N!
0M!
0L!
0K!
0J!
0I!
0H!
0G!
0F!
0E!
0D!
0C!
0B!
0A!
0@!
0?!
0>!
0=!
0<!
0;!
0:!
09!
08!
07!
06!
05!
04!
03!
02!
01!
00!
0/!
0.!
0-!
0,!
0+!
0*!
0)!
0(!
0'!
0&!
0%!
0$!
0#!
0"!
0!!
0~
0}
0|
0{
0z
0y
0x
0w
0v
0u
0t
0s
0r
0q
0p
0o
0n
0m
0l
0k
0j
0i
0h
0g
0f
0e
0d
0c
0b
0a
0`
0_
0^
0]
0\
0[
0Z
0Y
0X
0W
0V
0U
0T
0S
0R
0Q
0P
0O
0N
0M
0L
0K
0J
0I
0H
0G
0F
0E
0D
0C
0B
0A
0@
0?
0>
0=
0<
0;
0:
09
08
07
06
05
04
03
02
01
00
0/
0.
0-
0,
0+
0*
0)
0(
0'
0&
0%
0$
0|"
1{"
0z"
0y"
1~"
1}"
1"#
1!#
0$#
0##
1%#
0&#
0'#
0(#
0)#
0*#
0+#
0,#
0-#
1.#
0/#
00#
01#
02#
03#
07#
06#
05#
04#
0?#
0>#
0=#
0<#
0;#
0:#
09#
08#
0G#
0F#
0E#
0D#
0C#
0B#
0A#
0@#
0O#
0N#
0M#
0L#
0K#
0J#
0I#
0H#
0]#
0\#
0[#
0Z#
0Y#
0X#
0W#
0V#
0e#
0d#
0c#
0b#
0a#
0`#
0_#
0^#
1f#
xn#
xm#
xl#
xk#
xj#
xi#
xh#
xg#
0!$
0~#
0}#
0|#
0{#
0z#
0y#
0x#
0)$
0($
0'$
0&$
0%$
0$$
0#$
0"$
0*$
0w"
0v"
1u"
1t"
0s"
1r"
0q"
0p"
1o"
0n"
0i$
0h$
0g$
0f$
0e$
0d$
0c$
0b$
0a$
$end
#5000
1!
1n"
b0 w#
b1 w#
b10 w#
b11 w#
b100 w#
b10 j$
0n#
1m#
0l#
0k#
0j#
0i#
0h#
0g#
0Q#
1Q#
#10000
0!
0n"
#15000
1!
1n"
b0 w#
b1 w#
b10 w#
b11 w#
b100 w#
#20000
0!
0n"
#25000
1!
1n"
#30000
0!
0n"
#35000
1!
1n"
#40000
0!
0n"
#45000
1!
1n"
0"
b0 i"
b1 i"
b10 i"
b11 i"
b100 i"
b101 i"
b110 i"
b111 i"
b1000 i"
b0 i"
b1 i"
b10 i"
b11 i"
b100 i"
b101 i"
b110 i"
b111 i"
b1000 i"
b0 j"
0o"
#50000
0!
0n"
#55000
1!
1n"
b1 j"
b1 x"
b1 h"
1g"
b1010011 #
1w"
1v"
0u"
0t"
1s"
0r"
1q"
0"#
0!#
1|"
0{"
1z"
0~"
0}"
1$#
1##
0A$
0J$
1A$
1D$
0Q#
b0 R#
1Q#
b11 P#
1(#
1*$
0.#
0Q#
b0 P#
#60000
0!
0n"
#65000
1!
1n"
b10 j"
b10 x"
1p#
b11 s#
b10 h"
0g"
1f"
b0 #
1Q#
b10 P#
0w"
0v"
0s"
0q"
0|"
0z"
0$#
0##
0A$
0D$
0Q#
b0 P#
1Q#
b10 P#
0%#
0(#
0*$
#70000
0!
0n"
#75000
1!
1n"
b11 j"
b11 x"
0p#
b11 h"
1~#
1($
1g"
1F#
1>#
b10 o#
b1111111111111100 \$
b1111111111111100 ^$
b11111100 ]$
b11111100 Z$
b101100 #
0Q#
b0 P#
1h$
1u"
1t"
1r"
1c#
1b#
1a#
1`#
1_#
1^#
1"#
1!#
0~#
0>#
1{"
1~"
1}"
1A$
1J$
b0 \$
b0 ^$
b0 ]$
b0 Z$
b11 R#
1%#
1.#
0c#
0b#
0a#
0`#
0_#
0^#
1Q#
#80000
0!
0n"
#85000
1!
1n"
b100 j"
b100 x"
b0 j$
b100 h"
0g"
0f"
1e"
0m#
0Q#
1Q#
b10100111 #
1w"
1v"
0t"
1p"
0!#
1y"
0}"
1$#
1##
0($
0F#
b0 o#
0A$
0J$
1A$
1H$
0Q#
b1 R#
1Q#
b11 P#
0h$
0.#
1,#
1*$
b1000 o#
0Q#
b0 P#
1f$
#90000
0!
0n"
#95000
1!
1n"
b101 j"
b101 x"
1p#
b1 q#
b100 j$
b101 h"
1g"
1l#
b0 #
1Q#
b100 P#
0w"
0v"
0u"
0r"
0p"
0"#
1~#
1>#
0{"
0y"
0~"
0$#
0##
1($
1F#
b1010 o#
0A$
0H$
b1111111111111100 \$
b1111111111111100 ^$
b11111100 ]$
b11111100 Z$
0Q#
b0 R#
b0 P#
1Q#
b1 R#
b100 P#
1h$
0%#
0,#
1c#
1b#
1a#
1`#
1_#
1^#
0*$
0Q#
b0 R#
b0 P#
1Q#
b1 R#
b100 P#
b10 o#
0f$
#100000
0!
0n"
#105000
1!
1n"
b110 j"
b110 x"
b0 j$
0p#
b110 h"
0g"
1f"
0l#
1M#
b0 \$
b0 ^$
b0 ]$
b0 Z$
b1000100 #
0Q#
b0 R#
b0 P#
1u"
1q"
0c#
0b#
0a#
0`#
0_#
0^#
1"#
0~#
1}#
0>#
1=#
1z"
1~"
1A$
1C$
b100 P$
b1111111111111100 \$
b1111111111111100 ^$
b11111100 ]$
b11111100 Z$
b1 R#
1%#
1'#
1c#
1b#
1a#
1`#
1_#
1^#
15#
b10 Y$
1Q#
0f#
1\#
0Q#
1Q#
b10 P#
#110000
0!
0n"
#115000
1!
1n"
b111 j"
b111 x"
b111 h"
1~#
0}#
1g"
1>#
0=#
1N#
0M#
b0 Y$
b1 Y$
b1111111111111110 \$
b1111111111111110 ^$
b11111110 ]$
b11111110 Z$
b101100 #
0Q#
b0 P#
1Q#
b10 P#
1t"
1r"
0q"
1d#
1]#
0\#
1!#
0~#
0>#
1{"
0z"
1}"
0A$
0C$
b0 P$
1A$
1J$
b0 Y$
b10 \$
b10 ^$
b10 ]$
b10 Z$
0Q#
b11 R#
b0 P#
1Q#
b1 P#
1f#
0'#
1.#
0c#
0b#
0a#
0`#
0_#
0^#
0]#
05#
0Q#
b0 P#
1Q#
#120000
0!
0n"
#125000
1!
1n"
b1000 j"
b1000 x"
b1000 h"
0g"
0f"
0e"
1d"
b10110111 #
1w"
1v"
0t"
1s"
1p"
0!#
1~#
1>#
1|"
1y"
0}"
1$#
1##
0($
0F#
b0 o#
0A$
0J$
1B$
1I$
0Q#
b1 R#
1Q#
b11 P#
0h$
0%#
1&#
1a$
0.#
1-#
b10000 o#
0Q#
b0 P#
1S#
b11 T#
b1 U#
1e$
#130000
0!
0n"
#135000
1!
1n"
b1001 j"
b1001 x"
b1001 h"
1)$
1g"
1G#
b0 \$
b0 ^$
b0 ]$
b0 Z$
b10001 o#
b10100111 #
0S#
b0 T#
b0 U#
1S#
b11 T#
b10 U#
1i$
0s"
0d#
0|"
0B$
0I$
1A$
1H$
0S#
b0 T#
b0 U#
1S#
b11 T#
b10 U#
0&#
1%#
0a$
0-#
1,#
1*$
b1001 o#
0S#
b0 T#
b0 U#
1f$
0e$
#140000
0!
0n"
#145000
1!
1n"
b1010 j"
b1010 x"
1p#
b10 j$
b1010 h"
0g"
1f"
1m#
b101100 #
1Q#
b10 P#
0w"
0v"
1t"
0p"
1!#
1!$
0~#
1?#
0>#
0y"
1}"
0$#
0##
0)$
1($
0G#
1F#
b1010 o#
0A$
0H$
1A$
1J$
0Q#
b11 R#
b0 P#
1Q#
b1 R#
b10 P#
0i$
1h$
0,#
1.#
0*$
0Q#
b11 R#
b0 P#
1Q#
b1 R#
b10 P#
b10 o#
0f$
#150000
0!
0n"
